Data Manipulation with R
…
# View in the .blue[Console]

If you view the dataset in the Console, you'll see a plain-text `tibble`

```r
big_starwars
```

--

.code50[

```
  # A tibble: 82 × 18
     name      height  mass hair_…¹ skin_…² eye_c…³ birth…⁴ gender homew…⁵ species
     <chr>      <dbl> <dbl> <chr>   <chr>   <chr>     <dbl> <chr>  <chr>   <chr>  
   1 Luke Sky…    172    77 blond   fair    blue       19   mascu… Tatooi… Human  
   2 C-3PO        167    75 <NA>    gold    yellow    112   mascu… Tatooi… Droid  
   3 R2-D2         96    32 <NA>    white,… red        33   mascu… Naboo   Droid  
   4 Darth Va…    202   136 none    white   yellow     41.9 mascu… Tatooi… Human  
   5 Leia Org…    150    49 brown   light   brown      19   femin… Aldera… Human  
   6 Owen Lars    178   120 brown,… light   blue       52   mascu… Tatooi… Human  
   7 Beru Whi…    165    75 brown   light   blue       47   femin… Tatooi… Human  
   8 R5-D4         97    32 <NA>    white,… red        NA   mascu… Tatooi… Droid  
   9 Biggs Da…    183    84 black   light   brown      24   mascu… Tatooi… Human  
  10 Obi-Wan …    182    77 auburn… fair    blue-g…    57   mascu… Stewjon Human  
  # … with 72 more rows, 8 more variables: sex <chr>, species_class <chr>,
  #   species_desig <chr>, vehicle <chr>, hw_climate <chr>, hw_gravity <chr>,
  #   hw_terrain <chr>, hw_pop <dbl>, and abbreviated variable names ¹​hair_color,
  #   ²​skin_color, ³​eye_color, ⁴​birth_year, ⁵​homeworld
```
…
.code60[

```r
big_starwars |> select(name, homeworld, species)
```

]

--

.code60[

```
  # A tibble: 82 × 3
     name               homeworld species
     <chr>              <chr>     <chr>  
   1 Luke Skywalker     Tatooine  Human  
   2 C-3PO              Tatooine  Droid  
   3 R2-D2              Naboo     Droid  
   4 Darth Vader        Tatooine  Human  
   5 Leia Organa        Alderaan  Human  
   6 Owen Lars          Tatooine  Human  
   7 Beru Whitesun lars Tatooine  Human  
   8 R5-D4              Tatooine  Droid  
   9 Biggs Darklighter  Tatooine  Human  
  10 Obi-Wan Kenobi     Stewjon   Human  
  # … with 72 more rows
```
…
.code60[

```r
big_starwars |> select(-c(mass, height, hair_color))
```

]

--

.code60[

```
  # A tibble: 82 × 15
     name     skin_…¹ eye_c…² birth…³ gender homew…⁴ species sex   speci…⁵ speci…⁶
     <chr>    <chr>   <chr>     <dbl> <chr>  <chr>   <chr>   <chr> <chr>   <chr>  
   1 Luke Sk… fair    blue       19   mascu… Tatooi… Human   male  mammal  sentie…
   2 C-3PO    gold    yellow    112   mascu… Tatooi… Droid   none  artifi… sentie…
   3 R2-D2    white,… red        33   mascu… Naboo   Droid   none  artifi… sentie…
   4 Darth V… white   yellow     41.9 mascu… Tatooi… Human   male  mammal  sentie…
   5 Leia Or… light   brown      19   femin… Aldera… Human   fema… mammal  sentie…
   6 Owen La… light   blue       52   mascu… Tatooi… Human   male  mammal  sentie…
   7 Beru Wh… light   blue       47   femin… Tatooi… Human   fema… mammal  sentie…
   8 R5-D4    white,… red        NA   mascu… Tatooi… Droid   none  artifi… sentie…
   9 Biggs D… light   brown      24   mascu… Tatooi… Human   male  mammal  sentie…
  10 Obi-Wan… fair    blue-g…    57   mascu… Stewjon Human   male  mammal  sentie…
  # … with 72 more rows, 5 more variables: vehicle <chr>, hw_climate <chr>,
  #   hw_gravity <chr>, hw_terrain <chr>, hw_pop <dbl>, and abbreviated variable
  #   names ¹​skin_color, ²​eye_color, ³​birth_year, ⁴​homeworld, ⁵​species_class,
  #   ⁶​species_desig
```
…
.code60[

```r
big_starwars |> select(name, starts_with("h"))
```

]

--

.code60[

```
  # A tibble: 82 × 8
     name               height hair_color   homew…¹ hw_cl…² hw_gr…³ hw_te…⁴ hw_pop
     <chr>               <dbl> <chr>        <chr>   <chr>   <chr>   <chr>    <dbl>
   1 Luke Skywalker        172 blond        Tatooi… arid    1 stan… desert   2  e5
   2 C-3PO                 167 <NA>         Tatooi… arid    1 stan… desert   2  e5
   3 R2-D2                  96 <NA>         Naboo   temper… 1 stan… grassy…  4.5e9
   4 Darth Vader           202 none         Tatooi… arid    1 stan… desert   2  e5
   5 Leia Organa           150 brown        Aldera… temper… 1 stan… grassl…  2  e9
   6 Owen Lars             178 brown, grey  Tatooi… arid    1 stan… desert   2  e5
   7 Beru Whitesun lars    165 brown        Tatooi… arid    1 stan… desert   2  e5
   8 R5-D4                  97 <NA>         Tatooi… arid    1 stan… desert   2  e5
   9 Biggs Darklighter     183 black        Tatooi… arid    1 stan… desert   2  e5
  10 Obi-Wan Kenobi        182 auburn, whi… Stewjon temper… 1 stan… grass   NA    
  # … with 72 more rows, and abbreviated variable names ¹​homeworld, ²​hw_climate,
  #   ³​hw_gravity, ⁴​hw_terrain
```
…
.code60[

```r
big_starwars |> select(name, matches("_"))
```

]

--

.code60[

```
  # A tibble: 82 × 11
     name  hair_…¹ skin_…² eye_c…³ birth…⁴ speci…⁵ speci…⁶ hw_cl…⁷ hw_gr…⁸ hw_te…⁹
     <chr> <chr>   <chr>   <chr>     <dbl> <chr>   <chr>   <chr>   <chr>   <chr>  
   1 Luke… blond   fair    blue       19   mammal  sentie… arid    1 stan… desert 
   2 C-3PO <NA>    gold    yellow    112   artifi… sentie… arid    1 stan… desert 
   3 R2-D2 <NA>    white,… red        33   artifi… sentie… temper… 1 stan… grassy…
   4 Dart… none    white   yellow     41.9 mammal  sentie… arid    1 stan… desert 
   5 Leia… brown   light   brown      19   mammal  sentie… temper… 1 stan… grassl…
   6 Owen… brown,… light   blue       52   mammal  sentie… arid    1 stan… desert 
   7 Beru… brown   light   blue       47   mammal  sentie… arid    1 stan… desert 
   8 R5-D4 <NA>    white,… red        NA   artifi… sentie… arid    1 stan… desert 
   9 Bigg… black   light   brown      24   mammal  sentie… arid    1 stan… desert 
  10 Obi-… auburn… fair    blue-g…    57   mammal  sentie… temper… 1 stan… grass  
  # … with 72 more rows, 1 more variable: hw_pop <dbl>, and abbreviated variable
  #   names ¹​hair_color, ²​skin_color, ³​eye_color, ⁴​birth_year, ⁵​species_class,
  #   ⁶​species_desig, ⁷​hw_climate, ⁸​hw_gravity, ⁹​hw_terrain
```
…
.code60[

```r
big_starwars |> select(name, where(is.character))
```

]

--

.code60[

```
  # A tibble: 82 × 14
     name     hair_…¹ skin_…² eye_c…³ gender homew…⁴ species sex   speci…⁵ speci…⁶
     <chr>    <chr>   <chr>   <chr>   <chr>  <chr>   <chr>   <chr> <chr>   <chr>  
   1 Luke Sk… blond   fair    blue    mascu… Tatooi… Human   male  mammal  sentie…
   2 C-3PO    <NA>    gold    yellow  mascu… Tatooi… Droid   none  artifi… sentie…
   3 R2-D2    <NA>    white,… red     mascu… Naboo   Droid   none  artifi… sentie…
   4 Darth V… none    white   yellow  mascu… Tatooi… Human   male  mammal  sentie…
   5 Leia Or… brown   light   brown   femin… Aldera… Human   fema… mammal  sentie…
   6 Owen La… brown,… light   blue    mascu… Tatooi… Human   male  mammal  sentie…
   7 Beru Wh… brown   light   blue    femin… Tatooi… Human   fema… mammal  sentie…
   8 R5-D4    <NA>    white,… red     mascu… Tatooi… Droid   none  artifi… sentie…
   9 Biggs D… black   light   brown   mascu… Tatooi… Human   male  mammal  sentie…
  10 Obi-Wan… auburn… fair    blue-g… mascu… Stewjon Human   male  mammal  sentie…
  # … with 72 more rows, 4 more variables: vehicle <chr>, hw_climate <chr>,
  #   hw_gravity <chr>, hw_terrain <chr>, and abbreviated variable names
  #   ¹​hair_color, ²​skin_color, ³​eye_color, ⁴​homeworld, ⁵​species_class,
  #   ⁶​species_desig
```
…
.code60[

```r
big_starwars |> filter(species == "Human")
```

]

--

.code60[

```
  # A tibble: 35 × 18
     name      height  mass hair_…¹ skin_…² eye_c…³ birth…⁴ gender homew…⁵ species
     <chr>      <dbl> <dbl> <chr>   <chr>   <chr>     <dbl> <chr>  <chr>   <chr>  
   1 Luke Sky…    172    77 blond   fair    blue       19   mascu… Tatooi… Human  
   2 Darth Va…    202   136 none    white   yellow     41.9 mascu… Tatooi… Human  
   3 Leia Org…    150    49 brown   light   brown      19   femin… Aldera… Human  
   4 Owen Lars    178   120 brown,… light   blue       52   mascu… Tatooi… Human  
   5 Beru Whi…    165    75 brown   light   blue       47   femin… Tatooi… Human  
   6 Biggs Da…    183    84 black   light   brown      24   mascu… Tatooi… Human  
   7 Obi-Wan …    182    77 auburn… fair    blue-g…    57   mascu… Stewjon Human  
   8 Anakin S…    188    84 blond   fair    blue       41.9 mascu… Tatooi… Human  
   9 Wilhuff …    180    NA auburn… fair    blue       64   mascu… Eriadu  Human  
  10 Han Solo     180    80 brown   fair    brown      29   mascu… Corell… Human  
  # … with 25 more rows, 8 more variables: sex <chr>, species_class <chr>,
  #   species_desig <chr>, vehicle <chr>, hw_climate <chr>, hw_gravity <chr>,
  #   hw_terrain <chr>, hw_pop <dbl>, and abbreviated variable names ¹​hair_color,
  #   ²​skin_color, ³​eye_color, ⁴​birth_year, ⁵​homeworld
```
…
.code60[

```r
# this gets the same results...
big_starwars |> filter(species == "Human" & !is.na(hair_color))
```

]

--

.code60[

```
  # A tibble: 35 × 18
     name      height  mass hair_…¹ skin_…² eye_c…³ birth…⁴ gender homew…⁵ species
     <chr>      <dbl> <dbl> <chr>   <chr>   <chr>     <dbl> <chr>  <chr>   <chr>  
   1 Luke Sky…    172    77 blond   fair    blue       19   mascu… Tatooi… Human  
   2 Darth Va…    202   136 none    white   yellow     41.9 mascu… Tatooi… Human  
   3 Leia Org…    150    49 brown   light   brown      19   femin… Aldera… Human  
   4 Owen Lars    178   120 brown,… light   blue       52   mascu… Tatooi… Human  
   5 Beru Whi…    165    75 brown   light   blue       47   femin… Tatooi… Human  
   6 Biggs Da…    183    84 black   light   brown      24   mascu… Tatooi… Human  
   7 Obi-Wan …    182    77 auburn… fair    blue-g…    57   mascu… Stewjon Human  
   8 Anakin S…    188    84 blond   fair    blue       41.9 mascu… Tatooi… Human  
   9 Wilhuff …    180    NA auburn… fair    blue       64   mascu… Eriadu  Human  
  10 Han Solo     180    80 brown   fair    brown      29   mascu… Corell… Human  
  # … with 25 more rows, 8 more variables: sex <chr>, species_class <chr>,
  #   species_desig <chr>, vehicle <chr>, hw_climate <chr>, hw_gravity <chr>,
  #   hw_terrain <chr>, hw_pop <dbl>, and abbreviated variable names ¹​hair_color,
  #   ²​skin_color, ³​eye_color, ⁴​birth_year, ⁵​homeworld
```
…
.code60[

```r
# ...as this
big_starwars |> filter(species == "Human", !is.na(hair_color))
```

]

--

.code60[

```
  # A tibble: 35 × 18
     name      height  mass hair_…¹ skin_…² eye_c…³ birth…⁴ gender homew…⁵ species
     <chr>      <dbl> <dbl> <chr>   <chr>   <chr>     <dbl> <chr>  <chr>   <chr>  
   1 Luke Sky…    172    77 blond   fair    blue       19   mascu… Tatooi… Human  
   2 Darth Va…    202   136 none    white   yellow     41.9 mascu… Tatooi… Human  
   3 Leia Org…    150    49 brown   light   brown      19   femin… Aldera… Human  
   4 Owen Lars    178   120 brown,… light   blue       52   mascu… Tatooi… Human  
   5 Beru Whi…    165    75 brown   light   blue       47   femin… Tatooi… Human  
   6 Biggs Da…    183    84 black   light   brown      24   mascu… Tatooi… Human  
   7 Obi-Wan …    182    77 auburn… fair    blue-g…    57   mascu… Stewjon Human  
   8 Anakin S…    188    84 blond   fair    blue       41.9 mascu… Tatooi… Human  
   9 Wilhuff …    180    NA auburn… fair    blue       64   mascu… Eriadu  Human  
  10 Han Solo     180    80 brown   fair    brown      29   mascu… Corell… Human  
  # … with 25 more rows, 8 more variables: sex <chr>, species_class <chr>,
  #   species_desig <chr>, vehicle <chr>, hw_climate <chr>, hw_gravity <chr>,
  #   hw_terrain <chr>, hw_pop <dbl>, and abbreviated variable names ¹​hair_color,
  #   ²​skin_color, ³​eye_color, ⁴​birth_year, ⁵​homeworld
```
…
.code60[

```r
big_starwars |> arrange(height)
```

]

--

.code60[

```
  # A tibble: 82 × 18
     name      height  mass hair_…¹ skin_…² eye_c…³ birth…⁴ gender homew…⁵ species
     <chr>      <dbl> <dbl> <chr>   <chr>   <chr>     <dbl> <chr>  <chr>   <chr>  
   1 Yoda          66    17 white   green   brown       896 mascu… <NA>    Yoda's…
   2 Ratts Ty…     79    15 none    grey, … <NA>         NA mascu… Aleen … Aleena 
   3 Wicket S…     88    20 brown   brown   brown         8 mascu… Endor   Ewok   
   4 Dud Bolt      94    45 none    blue, … yellow       NA mascu… Vulpter Vulpte…
   5 R2-D2         96    32 <NA>    white,… red          33 mascu… Naboo   Droid  
   6 R4-P17        96    NA none    silver… red, b…      NA femin… <NA>    Droid  
   7 R5-D4         97    32 <NA>    white,… red          NA mascu… Tatooi… Droid  
   8 Sebulba      112    40 none    grey, … orange       NA mascu… Malast… Dug    
   9 Gasgano      122    NA none    white,… black        NA mascu… Troiken Xexto  
  10 Watto        137    NA black   blue, … yellow       NA mascu… Toydar… Toydar…
  # … with 72 more rows, 8 more variables: sex <chr>, species_class <chr>,
  #   species_desig <chr>, vehicle <chr>, hw_climate <chr>, hw_gravity <chr>,
  #   hw_terrain <chr>, hw_pop <dbl>, and abbreviated variable names ¹​hair_color,
  #   ²​skin_color, ³​eye_color, ⁴​birth_year, ⁵​homeworld
```
…
.code60[

```r
big_starwars |> arrange(desc(height))
```

]

--

.code60[

```
  # A tibble: 82 × 18
     name      height  mass hair_…¹ skin_…² eye_c…³ birth…⁴ gender homew…⁵ species
     <chr>      <dbl> <dbl> <chr>   <chr>   <chr>     <dbl> <chr>  <chr>   <chr>  
   1 Yarael P…    264    NA none    white   yellow     NA   mascu… Quermia Quermi…
   2 Tarfful      234   136 brown   brown   blue       NA   mascu… Kashyy… Wookie 
   3 Lama Su      229    88 none    grey    black      NA   mascu… Kamino  Kamino…
   4 Chewbacca    228   112 brown   <NA>    blue      200   mascu… Kashyy… Wookie 
   5 Roos Tar…    224    82 none    grey    orange     NA   mascu… Naboo   Gungan 
   6 Grievous     216   159 none    brown,… green,…    NA   mascu… Kalee   Kaleesh
   7 Taun We      213    NA none    grey    black      NA   femin… Kamino  Kamino…
   8 Rugor Na…    206    NA none    green   orange     NA   mascu… Naboo   Gungan 
   9 Tion Med…    206    80 none    grey    black      NA   mascu… Utapau  Pau'an 
  10 Darth Va…    202   136 none    white   yellow     41.9 mascu… Tatooi… Human  
  # … with 72 more rows, 8 more variables: sex <chr>, species_class <chr>,
  #   species_desig <chr>, vehicle <chr>, hw_climate <chr>, hw_gravity <chr>,
  #   hw_terrain <chr>, hw_pop <dbl>, and abbreviated variable names ¹​hair_color,
  #   ²​skin_color, ³​eye_color, ⁴​birth_year, ⁵​homeworld
```
…
.code60[

```r
big_starwars |> 
      mutate(bmi = mass / ((height / 100)^2))
```

]

--

.code60[

```
  # A tibble: 82 × 19
     name      height  mass hair_…¹ skin_…² eye_c…³ birth…⁴ gender homew…⁵ species
     <chr>      <dbl> <dbl> <chr>   <chr>   <chr>     <dbl> <chr>  <chr>   <chr>  
   1 Luke Sky…    172    77 blond   fair    blue       19   mascu… Tatooi… Human  
   2 C-3PO        167    75 <NA>    gold    yellow    112   mascu… Tatooi… Droid  
   3 R2-D2         96    32 <NA>    white,… red        33   mascu… Naboo   Droid  
   4 Darth Va…    202   136 none    white   yellow     41.9 mascu… Tatooi… Human  
   5 Leia Org…    150    49 brown   light   brown      19   femin… Aldera… Human  
   6 Owen Lars    178   120 brown,… light   blue       52   mascu… Tatooi… Human  
   7 Beru Whi…    165    75 brown   light   blue       47   femin… Tatooi… Human  
   8 R5-D4         97    32 <NA>    white,… red        NA   mascu… Tatooi… Droid  
   9 Biggs Da…    183    84 black   light   brown      24   mascu… Tatooi… Human  
  10 Obi-Wan …    182    77 auburn… fair    blue-g…    57   mascu… Stewjon Human  
  # … with 72 more rows, 9 more variables: sex <chr>, species_class <chr>,
  #   species_desig <chr>, vehicle <chr>, hw_climate <chr>, hw_gravity <chr>,
  #   hw_terrain <chr>, hw_pop <dbl>, bmi <dbl>, and abbreviated variable names
  #   ¹​hair_color, ²​skin_color, ³​eye_color, ⁴​birth_year, ⁵​homeworld
```
…
```r
big_starwars |>
        mutate(bmi = mass / ((height / 100)^2)) |>
        select(bmi)
```

]

--

.code60[

```
  # A tibble: 82 × 1
       bmi
     <dbl>
   1  26.0
   2  26.9
   3  34.7
   4  33.3
   5  21.8
   6  37.9
   7  27.5
   8  34.0
   9  25.1
  10  23.2
  # … with 72 more rows
```
…
```r
big_starwars |>
      mutate(bmi = mass / ((height / 100)^2), # create bmi
             bmi = round(bmi, digits = 0)) |> # change bmi
          select(bmi) # check bmi
```

]

--

.code60[

```
  # A tibble: 82 × 1
       bmi
     <dbl>
   1    26
   2    27
   3    35
   4    33
   5    22
   6    38
   7    28
   8    34
   9    25
  10    23
  # … with 72 more rows
```
…
