Data Visualization with ggplot2 (part 1)
…
Sort

We can also sort the responses using the sort = TRUE
argument.

TidyApple %>% 
  dplyr::count(trans_type, sort = TRUE)

#> # A tibble: 3  2
#>   trans_type      n
#>   <chr>       <int>
#> 1 driving    743682
#> 2 walking    205099
#> 3 transit    106512

Iterate

We can also combine dplyr::select_if() and
purrr::map() to pass the count() function to
all the character variables in TidyApple.

TidyApple %>% 
  select_if(is.character) %>% 
  map(~count(data.frame(x = .x), x, sort = TRUE)) -> tidy_apple_counts

We can example the counts of each value by using the $
to subset the tidy_apple_counts list.

tidy_apple_counts$sub_region

#>                 x     n
#> 1           Texas 76397
#> 2      California 52622
#> 3         Georgia 41527
#> 4        Virginia 38991
#> 5         Florida 38357
#> 6            Ohio 38357
#> 7  North Carolina 35821
#> 8        New York 33602
#> 9    Pennsylvania 32651
#> 10        Indiana 29481
#> 11       Michigan 28530
#> 12      Tennessee 27262
#> 13       Illinois 26945
#> 14       Missouri 24409
#> 15       Kentucky 23458
#> 16        Alabama 20922
#> 17      Wisconsin 19971
#> 18       Colorado 19654
#> 19      Minnesota 19654
#> 20    Mississippi 19654
#> 21       Oklahoma 19654
#> 22      Louisiana 19337
#> 23 South Carolina 18069
#> 24           Iowa 17752
#> 25     Washington 17118
#> 26       Arkansas 15850
#> 27     New Jersey 14582
#> 28         Oregon 14265
#> 29       Maryland 13631
#> 30         Kansas 12363
#>  [ reached 'max' / getOption("max.print") -- omitted 132 rows ]
…
